{
  "expoServerPort": 19000,
  "packagerPort": 19001,
  "packagerPid": 6812,
  "expoServerNgrokUrl": "https://gh-j5j.ramagiox.sobatbumn-eject.exp.direct",
  "packagerNgrokUrl": "https://packager.gh-j5j.ramagiox.sobatbumn-eject.exp.direct",
  "ngrokPid": 10192
}